[
    {
        "name": "Wavetech",
        "address": {
            "no": "185",
            "street": "Hagmolenbeekweg",
            "city": "Enschede",
            "country": "The Netherlands"
        }
    },
    {
        "name": "Wiredix",
        "address": {
            "no": "164",
            "street": "Waldeck Pyrmontsingel",
            "city": "Nijmegen",
            "country": "The Netherlands"
        }
    },
    {
        "name": "Quadmart",
        "address": {
            "no": "67",
            "street": "Karel Doormanlaan",
            "city": "Egmond aan Zee",
            "country": "The Netherlands"
        }
    },
    {
        "name": "Mountelligence",
        "address": {
            "no": "178",
            "street": "Rommesingel",
            "city": "Pijnacker",
            "country": "The Netherlands"
        }
    },
    {
        "name": "Allico",
        "address": {
            "no": "9",
            "street": "Noordeindseweg",
            "city": "Berkel en Rodenrijs",
            "country": "The Netherlands"
        }
    },
    {
        "name": "Dinosecurity",
        "address": {
            "no": "164",
            "street": "Wenninkgaarde",
            "city": "Enschede",
            "country": "The Netherlands"
        }
    },
    {
        "name": "Apachetechs",
        "address": {
            "no": "153",
            "street": "Ommerkanaal",
            "city": "Dedemsvaart",
            "country": "The Netherlands"
        }
    },
    {
        "name": "Dynamic Solutions",
        "address": {
            "no": "126",
            "street": "Sluisstraat",
            "city": "Amsterdam",
            "country": "The Netherlands"
        }
    },
    {
        "name": "Voyagetronics",
        "address": {
            "no": "153",
            "street": "Damlaan",
            "city": "Leidschendam",
            "country": "The Netherlands"
        }
    },
    {
        "name": "Herbtechs",
        "address": {
            "no": "39",
            "street": "Zwarte Woud",
            "city": "Utrecht",
            "country": "The Netherlands"
        }
    },
    {
        "name": "Pearl Records",
        "address": {
            "no": "71",
            "street": "Radarstraat",
            "city": "IJmuiden",
            "country": "The Netherlands"
        }
    },
    {
        "name": "Heartelligence",
        "address": {
            "no": "7",
            "street": "Rodenrijselaan",
            "city": "Rotterdam",
            "country": "The Netherlands"
        }
    },
    {
        "name": "Shadoworks",
        "address": {
            "no": "9",
            "street": "Tongerlosestraat",
            "city": "Lichtenvoorde",
            "country": "The Netherlands"
        }
    },
    {
        "name": "Lifecoms",
        "address": {
            "no": "200",
            "street": "Koperdoek",
            "city": "Wormer",
            "country": "The Netherlands"
        }
    },
    {
        "name": "Wavigations",
        "address": {
            "no": "112",
            "street": "Van der Duyn van Maasdamstraat",
            "city": "Hilversum",
            "country": "The Netherlands"
        }
    },
    {
        "name": "Energence",
        "address": {
            "no": "63",
            "street": "Kamperfoeliestraat",
            "city": "Den Haag",
            "country": "The Netherlands"
        }
    },
    {
        "name": "Angelico",
        "address": {
            "no": "84",
            "street": "Vogelwikke",
            "city": "Leusden",
            "country": "The Netherlands"
        }
    },
    {
        "name": "Alpite",
        "address": {
            "no": "149",
            "street": "Venusstraat",
            "city": "Nijmegen",
            "country": "The Netherlands"
        }
    },
    {
        "name": "Phantomedia",
        "address": {
            "no": "171",
            "street": "Treubstraat",
            "city": "Tilburg",
            "country": "The Netherlands"
        }
    }
]
